digraph "/storage7/Technical Engineering/Projects/AUTOSAR_projects/1_DIO/autosar_dio_driver_atmega328/Compiler.h"
{
  edge [fontname="Helvetica",fontsize="10",labelfontname="Helvetica",labelfontsize="10"];
  node [fontname="Helvetica",fontsize="10",shape=record];
  Node0 [label="/storage7/Technical\l Engineering/Projects\l/AUTOSAR_projects/1_DIO\l/autosar_dio_driver_atmega328\l/Compiler.h",height=0.2,width=0.4,color="black", fillcolor="grey75", style="filled", fontcolor="black"];
  Node0 -> Node1 [dir="back",color="midnightblue",fontsize="10",style="solid",fontname="Helvetica"];
  Node1 [label="/storage7/Technical\l Engineering/Projects\l/AUTOSAR_projects/1_DIO\l/autosar_dio_driver_atmega328\l/Std_Types.h",height=0.2,width=0.4,color="black", fillcolor="white", style="filled",URL="$_std___types_8h.html"];
  Node1 -> Node2 [dir="back",color="midnightblue",fontsize="10",style="solid",fontname="Helvetica"];
  Node2 [label="/storage7/Technical\l Engineering/Projects\l/AUTOSAR_projects/1_DIO\l/autosar_dio_driver_atmega328/Det.h",height=0.2,width=0.4,color="black", fillcolor="white", style="filled",URL="$_det_8h.html"];
  Node2 -> Node3 [dir="back",color="midnightblue",fontsize="10",style="solid",fontname="Helvetica"];
  Node3 [label="/storage7/Technical\l Engineering/Projects\l/AUTOSAR_projects/1_DIO\l/autosar_dio_driver_atmega328/Det.c",height=0.2,width=0.4,color="black", fillcolor="white", style="filled",URL="$_det_8c.html"];
  Node2 -> Node4 [dir="back",color="midnightblue",fontsize="10",style="solid",fontname="Helvetica"];
  Node4 [label="/storage7/Technical\l Engineering/Projects\l/AUTOSAR_projects/1_DIO\l/autosar_dio_driver_atmega328/Dio.c",height=0.2,width=0.4,color="black", fillcolor="white", style="filled",URL="$_dio_8c.html",tooltip="This is the source file (API Definitions) of the Dio module of AUTOSAR r4.3.1. "];
  Node1 -> Node5 [dir="back",color="midnightblue",fontsize="10",style="solid",fontname="Helvetica"];
  Node5 [label="/storage7/Technical\l Engineering/Projects\l/AUTOSAR_projects/1_DIO\l/autosar_dio_driver_atmega328/Dio.h",height=0.2,width=0.4,color="black", fillcolor="white", style="filled",URL="$_dio_8h.html",tooltip="This is the header file (Type Definitions + API Declarations) of the Dio module of AUTOSAR r4..."];
  Node5 -> Node4 [dir="back",color="midnightblue",fontsize="10",style="solid",fontname="Helvetica"];
  Node5 -> Node6 [dir="back",color="midnightblue",fontsize="10",style="solid",fontname="Helvetica"];
  Node6 [label="/storage7/Technical\l Engineering/Projects\l/AUTOSAR_projects/1_DIO\l/autosar_dio_driver_atmega328\l/Dio_Lcfg.c",height=0.2,width=0.4,color="black", fillcolor="white", style="filled",URL="$_dio___lcfg_8c.html",tooltip="This is the source file (Mapping Arrays) for the link-time configurations of the Dio module of AUTOSA..."];
  Node5 -> Node7 [dir="back",color="midnightblue",fontsize="10",style="solid",fontname="Helvetica"];
  Node7 [label="/storage7/Technical\l Engineering/Projects\l/AUTOSAR_projects/1_DIO\l/autosar_dio_driver_atmega328\l/test/main_test.c",height=0.2,width=0.4,color="black", fillcolor="white", style="filled",URL="$main__test_8c.html"];
  Node1 -> Node8 [dir="back",color="midnightblue",fontsize="10",style="solid",fontname="Helvetica"];
  Node8 [label="/storage7/Technical\l Engineering/Projects\l/AUTOSAR_projects/1_DIO\l/autosar_dio_driver_atmega328\l/Dio_Cfg.h",height=0.2,width=0.4,color="black", fillcolor="white", style="filled",URL="$_dio___cfg_8h.html",tooltip="This is the header file (Type Definitions) for the pre-compile configurations of the Dio module of AU..."];
  Node8 -> Node5 [dir="back",color="midnightblue",fontsize="10",style="solid",fontname="Helvetica"];
}
