digraph "/storage7/Technical Engineering/Projects/AUTOSAR_projects/1_DIO/autosar_dio_driver_atmega328/Platform_Types.h"
{
  edge [fontname="Helvetica",fontsize="10",labelfontname="Helvetica",labelfontsize="10"];
  node [fontname="Helvetica",fontsize="10",shape=record];
  Node0 [label="/storage7/Technical\l Engineering/Projects\l/AUTOSAR_projects/1_DIO\l/autosar_dio_driver_atmega328\l/Platform_Types.h",height=0.2,width=0.4,color="black", fillcolor="grey75", style="filled", fontcolor="black"];
  Node0 -> Node1 [color="midnightblue",fontsize="10",style="solid",fontname="Helvetica"];
  Node1 [label="stdint.h",height=0.2,width=0.4,color="grey75", fillcolor="white", style="filled"];
}
