digraph "Configuration"
{
  edge [fontname="Helvetica",fontsize="10",labelfontname="Helvetica",labelfontsize="10"];
  node [fontname="Helvetica",fontsize="10",shape=record];
  rankdir=LR;
  Node3 [label="Symbolic_Names_Channels\l_Ports_Groups",height=0.2,width=0.4,color="black", fillcolor="white", style="filled",URL="$group___symbolic___names___channels___ports___groups.html"];
  Node1 [label="Configuration_Fields",height=0.2,width=0.4,color="black", fillcolor="white", style="filled",URL="$group___configuration___fields.html"];
  Node2 [label="ATMega328p_GPIO_PORT\l_Definitions",height=0.2,width=0.4,color="black", fillcolor="white", style="filled",URL="$group___a_t_mega328p___g_p_i_o___p_o_r_t___definitions.html"];
  Node4 [label="Types_Physical_Channels\l_Ports_Groups",height=0.2,width=0.4,color="black", fillcolor="white", style="filled",URL="$group___types___physical___channels___ports___groups.html"];
  Node5 [label="Mapping_Arrays_Symbolic\l_Names",height=0.2,width=0.4,color="black", fillcolor="white", style="filled",URL="$group___mapping___arrays___symbolic___names.html"];
  Node0 [label="Configuration",height=0.2,width=0.4,color="black", fillcolor="grey75", style="filled", fontcolor="black"];
  Node0->Node1 [shape=plaintext, dir="back", style="solid"];
  Node0->Node2 [shape=plaintext, dir="back", style="solid"];
  Node0->Node3 [shape=plaintext, dir="back", style="solid"];
  Node0->Node4 [shape=plaintext, dir="back", style="solid"];
  Node0->Node5 [shape=plaintext, dir="back", style="solid"];
}
