digraph "Dio_PhysicalPortType"
{
  edge [fontname="Helvetica",fontsize="10",labelfontname="Helvetica",labelfontsize="10"];
  node [fontname="Helvetica",fontsize="10",shape=record];
  Node1 [label="Dio_PhysicalPortType",height=0.2,width=0.4,color="black", fillcolor="grey75", style="filled", fontcolor="black"];
  Node2 -> Node1 [dir="back",color="darkorchid3",fontsize="10",style="dashed",label=" GpioPortPtr" ,fontname="Helvetica"];
  Node2 [label="Dio_GpioType",height=0.2,width=0.4,color="black", fillcolor="white", style="filled",URL="$struct_dio___gpio_type.html"];
}
